<?xml version="1.0" encoding="UTF-8"?>
<svg width="63px" height="63px" viewBox="0 0 63 63" version="1.1" xmlns="http://www.w3.org/2000/svg" xmlns:xlink="http://www.w3.org/1999/xlink">
    <title>rain</title>
    <defs>
        <polygon id="path-1" points="0 0.00390070922 30.0744681 0.00390070922 30.0744681 43.7308511 0 43.7308511"></polygon>
    </defs>
    <g id="rain" stroke="none" stroke-width="1" fill="none" fill-rule="evenodd">
        <g id="Group-3-Copy" transform="translate(16.000000, 9.500000)">
            <mask id="mask-2" fill="white">
                <use xlink:href="#path-1"></use>
            </mask>
            <g id="Clip-2"></g>
            <path d="M4.25177305,21.2713475 C2.96453901,23.4947518 2.37163121,25.9053901 2.37163121,28.2614184 C2.40283688,34.9862411 7.1070922,41.1259574 15.1659574,41.3209929 L15.1659574,41.3365957 C22.951773,41.1805674 27.6950355,34.9316312 27.7262411,28.1912057 C27.7262411,25.8273759 27.1177305,23.4401418 25.8929078,21.2713475 C21.6411348,13.711773 17.0929078,10.801844 15.0801418,5.04439716 C13.2390071,10.8876596 8.51134752,13.6805674 4.25177305,21.2713475 L4.25177305,21.2713475 Z M15.0333333,43.6614184 C5.71843972,43.4585816 -0.0234042553,36.0550355 -7.12762246e-05,28.2614184 C-7.12762246e-05,25.4919149 0.709929078,22.6756028 2.2,20.1167376 C7.74680851,10.56 12.9269504,8.43801418 13.4340426,1.47914894 C13.4340426,0.597588652 14.6042553,-0.00312056738 14.8851064,-0.00312056738 C15.5950355,0.0280851064 15.8836879,0.246524823 15.977305,0.277730496 L16.5078014,0.566382979 L16.5858156,1.15929078 C17.412766,8.30539007 22.4212766,10.5912057 27.9368794,20.1167376 C29.3723404,22.6756028 30.0745384,25.4607092 30.0745384,28.1912057 C30.0978723,36.0628369 24.2780142,43.6068085 15.0333333,43.6848227 L15.0333333,43.7316312 L15.0333333,43.6614184 Z" id="Fill-1" fill="#FFFFFF" mask="url(#mask-2)"></path>
        </g>
    </g>
</svg>